<?xml version="1.0" encoding="UTF-8" standalone="no"?>
<svg
   xmlns:dc="http://purl.org/dc/elements/1.1/"
   xmlns:cc="http://creativecommons.org/ns#"
   xmlns:rdf="http://www.w3.org/1999/02/22-rdf-syntax-ns#"
   xmlns:svg="http://www.w3.org/2000/svg"
   xmlns="http://www.w3.org/2000/svg"
   xmlns:xlink="http://www.w3.org/1999/xlink"
   xmlns:sodipodi="http://sodipodi.sourceforge.net/DTD/sodipodi-0.dtd"
   xmlns:inkscape="http://www.inkscape.org/namespaces/inkscape"
   inkscape:version="0.92.4 (5da689c313, 2019-01-14)"
   sodipodi:docname="distribute-vertical-center-symbolic.svg"
   viewBox="0 0 16 16"
   height="16"
   width="16"
   id="svg1"
   version="1.1">
<style id="s0">
   .base    { fill: #000000; }
   .success { fill: #009909; }
   .warning { fill: #FF1990; }
   .error   { fill: #00AAFF; }
   .dark    {  }
  </style>
  <style id="s2"> 
     @import '../../highlights.css'; 
  </style>
     
<metadata
     id="metadata1054">
    <rdf:RDF>
      <cc:Work
         rdf:about="">
        <dc:format>image/svg+xml</dc:format>
        <dc:type
           rdf:resource="http://purl.org/dc/dcmitype/StillImage" />
      </cc:Work>
    </rdf:RDF>
  </metadata>
  <defs
     id="defs1052" />
  <sodipodi:namedview
     inkscape:snap-global="false"
     inkscape:current-layer="distribute-vertical-center"
     inkscape:window-maximized="1"
     inkscape:window-y="-8"
     inkscape:window-x="54"
     inkscape:window-height="1177"
     inkscape:window-width="1858"
     inkscape:cy="19.549751"
     inkscape:cx="21.278591"
     inkscape:zoom="21.991133"
     showgrid="true"
     id="namedview"
     guidetolerance="10"
     gridtolerance="10"
     objecttolerance="10">
    <inkscape:grid
       id="grid"
       type="xygrid" />
  </sodipodi:namedview>
  <g
     id="distribute-vertical-center"
     inkscape:label="00284"
     transform="matrix(0.666667,0,0,0.666667,-721.334,-497.57467)">
    <use
       height="1250"
       width="1250"
       transform="matrix(0,1,0.5416243,0,698.3349,-285.638)"
       id="use18859"
       y="0"
       x="0"
       xlink:href="#path5265" />
    <path
       transform="matrix(0,1,1,0,0,0)"
       style="opacity:0;fill:none"
       d="m 746.362,1082.001 h 24 v 24 h -24 z"
       id="rect18867"
       inkscape:connector-curvature="0" />
    <g
       id="g872"
       transform="translate(-0.277841,-0.81367018)">
      <path
         class="success"
         id="path18673"
         d="m 1082.2783,765.57099 h 0.4615 11.0766 0.4616 v -1.5 h -0.4616 -11.0766 -0.4615 z"
         style="opacity:1;fill-opacity:0.89019608;"
         inkscape:connector-curvature="0" />
      <path
         id="rect18675"
         d="m 1091.2781,768.32099 h 14.9997 v -7 h -14.9997 v 2.031 h 4.0311 v 2.906 h -4.0311 z"
         style="opacity:1;"
         inkscape:connector-curvature="0" />
      <path
         id="rect18677"
         d="m 1091.2781,754.59779 h 8.9998 v -5 h -8.9998 v 1 h 3.9999 v 3 h -3.9999 z"
         style="opacity:1;"
         inkscape:connector-curvature="0" />
      <path
         style="opacity:0;fill:none;"
         d="m 1082.2783,771.17529 v -24 h 23.9995 v 24 z"
         id="rect18679"
         inkscape:connector-curvature="0" />
      <path
         class="success"
         inkscape:connector-curvature="0"
         style="opacity:1;fill-opacity:0.89019608;"
         d="m 1082.2783,752.84779 h 0.4615 11.0766 0.4616 v -1.5 h -0.4616 -11.0766 -0.4615 z"
         id="path740" />
      <path
         sodipodi:nodetypes="ccccccccccccccc"
         inkscape:connector-curvature="0"
         id="path826"
         d="m 1083.2132,759.79769 3,2.9795 3,-2.9795 h -2.25 v -0.7617 -1.1836 -0.7617 h 2.25 l -3,-2.9824 -3,2.9824 h 2.25 v 0.7617 1.1836 0.7617 z"
         style="opacity:0.5;"/>
    </g>
  </g>
</svg>
