<?xml version="1.0" encoding="UTF-8" standalone="no"?>
<svg
   xmlns:dc="http://purl.org/dc/elements/1.1/"
   xmlns:cc="http://creativecommons.org/ns#"
   xmlns:rdf="http://www.w3.org/1999/02/22-rdf-syntax-ns#"
   xmlns:svg="http://www.w3.org/2000/svg"
   xmlns="http://www.w3.org/2000/svg"
   xmlns:sodipodi="http://sodipodi.sourceforge.net/DTD/sodipodi-0.dtd"
   xmlns:inkscape="http://www.inkscape.org/namespaces/inkscape"
   inkscape:version="0.92.4 (5da689c313, 2019-01-14)"
   sodipodi:docname="distribute-vertical-gaps-symbolic.svg"
   viewBox="0 0 16 16"
   height="16"
   width="16"
   id="svg1"
   version="1.1">
<style id="s0">
   .base    { fill: #000000; }
   .success { fill: #009909; }
   .warning { fill: #FF1990; }
   .error   { fill: #00AAFF; }
   .dark    {  }
  </style>
  <style id="s2"> 
     @import '../../highlights.css'; 
  </style>
     
<metadata
     id="metadata1253">
    <rdf:RDF>
      <cc:Work
         rdf:about="">
        <dc:format>image/svg+xml</dc:format>
        <dc:type
           rdf:resource="http://purl.org/dc/dcmitype/StillImage" />
      </cc:Work>
    </rdf:RDF>
  </metadata>
  <defs
     id="defs1251" />
  <sodipodi:namedview
     inkscape:snap-global="false"
     inkscape:current-layer="svg1"
     inkscape:window-maximized="1"
     inkscape:window-y="-8"
     inkscape:window-x="54"
     inkscape:window-height="1177"
     inkscape:window-width="1858"
     inkscape:cy="26.108674"
     inkscape:cx="-0.86135142"
     inkscape:zoom="10.995567"
     showgrid="true"
     id="namedview"
     guidetolerance="10"
     gridtolerance="10"
     objecttolerance="10">
    <inkscape:grid
       id="grid"
       type="xygrid" />
  </sodipodi:namedview>
  <g
     id="g944"
     transform="translate(-20.28426,-14.749237)">
    <path
       inkscape:connector-curvature="0"
       id="rect18780-3"
       d="m 36.283901,30.749237 h -9.937474 v -2.004601 h 9.937474 z"
       style="opacity:1;"/>
    <path
       inkscape:connector-curvature="0"
       id="rect18784"
       d="M 20.28426,30.749237 V 14.749229 h 15.999721 v 16.000008 z"
       style="opacity:0;fill:none;"/>
    <path
       inkscape:connector-curvature="0"
       id="rect18782-0"
       d="m 26.929251,23.788567 v -2.504135 h 6.673037 v 2.504135 z"
       style="opacity:1;"/>
    <path
       class="success "
       id="path904"
       d="m 20.284273,24.272367 h 0.61539 14.768942 0.615389 v -0.5 h -0.615389 -14.768942 -0.61539 z"
       style="opacity:1;fill-opacity:1;"
       inkscape:connector-curvature="0" />
    <path
       inkscape:connector-curvature="0"
       style="opacity:1;fill-opacity:1;"
       d="m 20.284273,16.863297 h 0.61539 14.768942 0.615389 v -0.500001 h -0.615389 -14.768942 -0.61539 z"
       id="path892"
       class="success " />
    <path
       class="success "
       id="path906"
       d="m 20.284273,28.749636 h 0.61539 14.768942 0.615389 v -0.5 h -0.615389 -14.768942 -0.61539 z"
       style="opacity:1;fill-opacity:1;"
       inkscape:connector-curvature="0" />
    <path
       inkscape:connector-curvature="0"
       style="opacity:1;fill-opacity:1;"
       d="m 20.284273,21.340565 h 0.61539 14.768942 0.615389 v -0.5 h -0.615389 -14.768942 -0.61539 z"
       id="path894"
       class="success " />
    <rect
       transform="rotate(-90)"
       y="21.091049"
       x="-27.547899"
       height="1.6090474"
       width="2.5737541"
       id="rect912"
       style="opacity:0.5;fill-opacity:1;" />
    <rect
       transform="rotate(-90)"
       style="opacity:0.5;fill-opacity:1;"
       id="rect910"
       width="2.5737541"
       height="1.6090474"
       x="-20.1388"
       y="21.091049" />
    <rect
       transform="rotate(-90)"
       style="opacity:1;"
       y="26.29623"
       x="-16.396608"
       height="9.9876719"
       width="1.6858754"
       id="rect968-5" />
  </g>
</svg>
