<?xml version="1.0" encoding="UTF-8" standalone="no"?>
<svg
   xmlns:dc="http://purl.org/dc/elements/1.1/"
   xmlns:cc="http://creativecommons.org/ns#"
   xmlns:rdf="http://www.w3.org/1999/02/22-rdf-syntax-ns#"
   xmlns:svg="http://www.w3.org/2000/svg"
   xmlns="http://www.w3.org/2000/svg"
   xmlns:sodipodi="http://sodipodi.sourceforge.net/DTD/sodipodi-0.dtd"
   xmlns:inkscape="http://www.inkscape.org/namespaces/inkscape"
   inkscape:version="0.92.4 (5da689c313, 2019-01-14)"
   sodipodi:docname="distribute-horizontal-gaps-symbolic.svg"
   viewBox="0 0 16 16"
   height="16"
   width="16"
   id="svg1"
   version="1.1">
<style id="s0">
   .base    { fill: #000000; }
   .success { fill: #009909; }
   .warning { fill: #FF1990; }
   .error   { fill: #00AAFF; }
   .dark    {  }
  </style>
  <style id="s2"> 
     @import '../../highlights.css'; 
  </style>
     
<metadata
     id="metadata2602">
    <rdf:RDF>
      <cc:Work
         rdf:about="">
        <dc:format>image/svg+xml</dc:format>
        <dc:type
           rdf:resource="http://purl.org/dc/dcmitype/StillImage" />
        <dc:title />
      </cc:Work>
    </rdf:RDF>
  </metadata>
  <defs
     id="defs2600" />
  <sodipodi:namedview
     inkscape:snap-global="false"
     inkscape:current-layer="distribute-horizontal-gaps"
     inkscape:window-maximized="1"
     inkscape:window-y="-8"
     inkscape:window-x="54"
     inkscape:window-height="1177"
     inkscape:window-width="1858"
     inkscape:cy="10.312132"
     inkscape:cx="4.0075318"
     inkscape:zoom="43.982267"
     showgrid="true"
     id="namedview"
     guidetolerance="10"
     gridtolerance="10"
     objecttolerance="10">
    <inkscape:grid
       id="grid"
       type="xygrid" />
  </sodipodi:namedview>
  <g
     id="distribute-horizontal-gaps"
     inkscape:label="00282"
     transform="matrix(0.666667,0,0,0.666655,-772.66667,-472.23283)">
    <path
       style="opacity:1;"
       d="m 1159,732.36206 v -14.90647 h 3.0069 v 14.90647 z"
       id="rect18780"
       inkscape:connector-curvature="0" />
    <path
       style="opacity:0;fill:none"
       d="m 1159,708.36218 h 24 v 24 h -24 z"
       id="rect18784"
       inkscape:connector-curvature="0" />
    <path
       style="opacity:1;"
       d="m 1169.441,718.32984 h 3.7562 v 10.00973 h -3.7562 z"
       id="rect18782"
       inkscape:connector-curvature="0" />
    <path
       inkscape:connector-curvature="0"
       style="opacity:1;fill-opacity:1;"
       d="m 1168.7153,708.3622 v 0.9231 22.1538 0.9231 h 0.75 v -0.9231 -22.1538 -0.9231 z"
       id="path904"
       class="success
" />
    <path
       class="success
"
       id="path892"
       d="m 1179.8289,708.3622 v 0.9231 22.1538 0.9231 h 0.75 v -0.9231 -22.1538 -0.9231 z"
       style="opacity:1;fill-opacity:1;"
       inkscape:connector-curvature="0" />
    <path
       inkscape:connector-curvature="0"
       style="opacity:1;fill-opacity:1;"
       d="m 1161.9994,708.3622 v 0.9231 22.1538 0.9231 h 0.75 v -0.9231 -22.1538 -0.9231 z"
       id="path906"
       class="success
" />
    <path
       class="success
"
       id="path894"
       d="m 1173.113,708.3622 v 0.9231 22.1538 0.9231 h 0.75 v -0.9231 -22.1538 -0.9231 z"
       style="opacity:1;fill-opacity:1;"
       inkscape:connector-curvature="0" />
    <rect
       style="opacity:0.5;fill-opacity:1;"
       id="rect912"
       width="3.8606291"
       height="2.4136133"
       x="1163.802"
       y="709.57239" />
    <rect
       y="709.57239"
       x="1174.9156"
       height="2.4136133"
       width="3.8606291"
       id="rect910"
       style="opacity:0.5;fill-opacity:1;" />
  </g>
  <rect
     id="rect968"
     width="1.6858754"
     height="9.9876719"
     x="14.353012"
     y="6.0123286"
     style="opacity:1;"/>
</svg>
