<?xml version="1.0" encoding="UTF-8" standalone="no"?>
<svg
   xmlns:dc="http://purl.org/dc/elements/1.1/"
   xmlns:cc="http://creativecommons.org/ns#"
   xmlns:rdf="http://www.w3.org/1999/02/22-rdf-syntax-ns#"
   xmlns:svg="http://www.w3.org/2000/svg"
   xmlns="http://www.w3.org/2000/svg"
   xmlns:sodipodi="http://sodipodi.sourceforge.net/DTD/sodipodi-0.dtd"
   xmlns:inkscape="http://www.inkscape.org/namespaces/inkscape"
   inkscape:version="1.1-dev (1fceb22ce1, 2019-12-30, custom)"
   sodipodi:docname="feDisplacementMap-icon-symbolic.svg"
   viewBox="0 0 16 16"
   height="16"
   width="16"
   id="svg1"
   version="1.1">
  <defs
     id="defs1211" />
  <style
     id="s0">.base { fill:#000000; }
.success { fill:#009909; }
.warning { fill:#FF1990; }
.error { fill:#00AAFF; }
.dark {  }
</style>
  <style
     id="s2">
@import '../../highlights.css';
</style>
  <sodipodi:namedview
     inkscape:current-layer="layer"
     inkscape:window-maximized="1"
     inkscape:window-height="1376"
     inkscape:window-width="2560"
     inkscape:window-y="27"
     inkscape:window-x="0"
     inkscape:cy="8.9538646"
     inkscape:cx="7.4837792"
     inkscape:zoom="27.166187"
     showgrid="true"
     id="namedview"
     guidetolerance="10"
     gridtolerance="10"
     objecttolerance="10">
    <inkscape:grid
       id="grid"
       type="xygrid" />
  </sodipodi:namedview>
  <metadata
     id="metadata1906">
    <rdf:RDF>
      <cc:Work
         rdf:about="">
        <dc:format>image/svg+xml</dc:format>
        <dc:type
           rdf:resource="http://purl.org/dc/dcmitype/StillImage" />
        <cc:license
           rdf:resource="http://creativecommons.org/publicdomain/zero/1.0/" />
        <dc:title></dc:title>
        <dc:date>13 Nov 2018</dc:date>
        <dc:creator>
          <cc:Agent>
            <dc:title>Ramón Miranda</dc:title>
          </cc:Agent>
        </dc:creator>
        <dc:rights>
          <cc:Agent>
            <dc:title>see the license tab</dc:title>
          </cc:Agent>
        </dc:rights>
        <dc:subject>
          <rdf:Bag>
            <rdf:li>icon ui</rdf:li>
          </rdf:Bag>
        </dc:subject>
        <dc:description>This is a little contribution with Inkscape Project
Ramon Miranda  www.ramonmiranda.com (design and SVG file)
Jabiertxo (SVG stuff to integrate them in UI)</dc:description>
        <dc:publisher>
          <cc:Agent>
            <dc:title />
          </cc:Agent>
        </dc:publisher>
        <dc:identifier />
        <dc:source />
        <dc:relation />
        <dc:language>-</dc:language>
        <dc:coverage />
        <dc:contributor>
          <cc:Agent>
            <dc:title>Ramon Miranda
Jabier Arraiza</dc:title>
          </cc:Agent>
        </dc:contributor>
      </cc:Work>
      <cc:License
         rdf:about="http://creativecommons.org/publicdomain/zero/1.0/">
        <cc:permits
           rdf:resource="http://creativecommons.org/ns#Reproduction" />
        <cc:permits
           rdf:resource="http://creativecommons.org/ns#Distribution" />
        <cc:permits
           rdf:resource="http://creativecommons.org/ns#DerivativeWorks" />
      </cc:License>
    </rdf:RDF>
  </metadata>
  <g
     inkscape:label="feDisplacementMap"
     id="layer"
     inkscape:groupmode="layer">
    <path
       style="opacity:0;fill:none"
       d="M 0,0 H 16 V 16 H 0 Z"
       id="rect22048" />
    <path
       id="path1247"
       d="m 14.200677,6.5526435 c -0.0342,-0.2690422 -0.01005,-0.5490497 -0.01671,-0.8229479 -0.01271,-0.084638 0.02628,-0.1916976 -0.02107,-0.2613026 -0.06868,-0.2083555 0.0409,-0.4635769 0.03646,-0.689061 0.0066,-0.1706743 0.11804,-0.4266284 -0.135851,-0.4400487 0.06745,-0.3357688 0.178557,-0.6642774 0.239823,-1.0019426 -0.265982,0.032905 -0.14813,-0.2511488 -0.136897,-0.4171578 0.01943,-0.2146407 0.06638,-0.4287723 0.06763,-0.6437706 -0.09913,-0.033417 -0.02925,-0.1718784 -0.05011,-0.2548498 0.0057,-0.2768607 -0.01502,-0.5576177 0.01511,-0.8313572 0.20255,-0.00723 0.544298,-0.080317 0.442943,0.2416994 6.86e-4,0.2737916 2.97e-4,0.5475846 3.58e-4,0.8213767 -0.150718,0.014416 0.166238,0.047817 0.04538,0.1856413 -0.02979,0.305681 -0.09294,0.6113084 -0.09797,0.9175724 0.130726,0.034447 0.230429,0.07361 0.134167,0.224147 -0.06417,0.2757502 -0.152674,0.546862 -0.199615,0.8258668 0.28438,-0.0114 0.110642,0.3253321 0.121308,0.5056476 -0.0088,0.2162288 -0.08804,0.4576253 -0.0033,0.636574 0,0.3306241 0,0.6612483 0,0.9918728 -0.141681,0.030822 -0.296887,0.01543 -0.441689,0.01204 z"
       style="opacity:1;fill:#000000" />
    <path
       id="path1245"
       d="m 4.810289,15.48542 c 0.020981,-0.03458 0.049579,0.034 0,0 z"
       style="opacity:1;fill:#000000" />
    <path
       class="error"
       id="path1243"
       d="m 10.625367,15.351376 c -0.196749,-0.09358 -0.510686,0.0025 -0.6141,-0.250425 -0.1428544,-0.163095 0.0078,-0.468877 -0.1752726,-0.568321 -0.2252054,0.109368 -0.4510081,0.188892 -0.699388,0.222012 -0.286209,0.116294 -0.3917648,-0.21141 -0.5080292,-0.399918 -0.127513,-0.188973 -0.34516,-0.206985 -0.5284771,-0.312772 -0.2676732,-0.10346 -0.19779,-0.399472 0.043899,-0.476491 0.1672362,-0.120749 0.1116857,-0.533899 -0.1142688,-0.27048 -0.2006685,0.07036 -0.1467257,0.561314 -0.430814,0.382507 -0.1961107,-0.160756 -0.5306754,-0.225716 -0.7261209,-0.03256 -0.044384,0.187438 0.2001465,0.365748 0.072419,0.551626 -0.2321767,0.140971 -0.4771949,-0.187629 -0.7115164,-0.03473 -0.2021362,0.156724 -0.4768521,0.100857 -0.7084413,0.05982 -0.2845864,-0.112874 -0.3503414,0.212914 -0.1891276,0.375519 -0.01311,0.274014 0.4621015,0.378843 0.388937,0.589593 -0.2272222,0.08358 -0.4720973,0.06286 -0.6777292,-0.06876 -0.1072203,-0.04802 -0.2785193,-0.184877 -0.078606,-0.09002 0.1143255,0.103311 0.5026392,0.191433 0.3572497,-0.07292 C 5.2530706,14.726995 5.1482998,14.523489 5.0512185,14.306089 4.9431779,14.002157 5.3971569,13.970014 5.4302821,13.715915 5.3813477,13.487449 5.3481628,13.263868 5.5148975,13.07588 5.5284546,12.84354 5.4271638,12.568015 5.6529368,12.399795 5.8770389,12.20918 5.4810622,12.03176 5.6077486,11.845969 5.8317134,11.657674 5.55053,11.458465 5.3634672,11.410022 5.1630701,11.356145 4.8767328,11.439516 4.7531304,11.22862 c -0.079002,-0.286596 0.060428,-0.560095 0.351609,-0.636062 0.1392,-0.206074 -0.165858,-0.351902 -0.3446202,-0.271713 -0.2499966,-0.03625 -0.5751174,0.01322 -0.7447131,-0.22002 C 3.9625162,9.93558 3.8285127,9.7819698 3.6729306,9.9276317 3.7158668,9.6986141 3.8660703,9.4984198 4.0892508,9.4126984 4.3056481,9.2881573 4.5625262,9.4283961 4.6826654,9.6157917 4.8178623,9.9213498 5.1698831,9.7227182 5.3689975,9.5978254 5.5687859,9.5147321 5.7654841,9.1532585 5.9882112,9.3668334 5.9679215,9.5857688 5.7908776,9.9626637 6.1717697,9.9711315 6.4300291,10.061195 6.7285544,9.855716 6.6977322,9.570815 6.9268664,9.3506622 7.0737443,9.7774772 7.1909721,9.9266731 7.3805384,10.185217 7.4205211,9.6476791 7.3114903,9.5341616 7.264456,9.3217736 7.0730109,9.5149881 6.940794,9.3471121 6.7345356,9.3955664 6.4512915,9.2178765 6.5562896,8.9795409 6.6847002,8.7290774 6.9769019,8.9726383 7.1598192,9.016508 7.2453358,9.0997905 7.3160335,9.1455016 7.2828638,9.1809374 7.4715797,9.2606834 7.6566447,9.0063944 7.609303,8.8164741 7.5618691,8.5736776 7.4645222,8.269924 7.6505505,8.0629239 7.9019969,7.9475326 7.9820908,7.6952843 7.9391967,7.4363243 7.9423067,7.1687174 7.9565567,6.898207 8.0105327,6.6366988 8.1047737,6.5682708 8.17617,6.9437941 8.1962927,7.0449169 8.0512284,7.2797436 8.2928907,7.4881978 8.4473511,7.6496673 8.6271334,7.7786731 8.8778669,7.7936283 9.036563,7.9683312 9.2717675,8.1524917 9.038173,8.422304 8.962604,8.6233496 9.008648,8.8655779 8.4244864,8.9702541 8.7822641,9.1557439 8.993492,9.2779142 9.1970926,9.414349 9.4209651,9.513525 c 0.1883281,0.1313501 0.4220622,0.3395182 0.2600222,0.582941 -0.090036,0.181457 -0.065971,0.325907 0.1607609,0.252376 0.2003538,-0.07435 0.03182,-0.309749 0.1833888,-0.430094 0.196659,-0.1048242 0.430325,0.05028 0.597157,0.164026 0.05267,0.08666 0.05707,0.357237 0.222695,0.24574 -0.02961,-0.219495 0.209342,-0.4106971 0.368853,-0.186661 0.188382,0.21494 0.525124,0.128107 0.688989,-0.07215 0.278403,-0.1688726 0.430945,0.184805 0.609919,0.326314 0.09405,0.119579 0.333501,0.134677 0.389156,0.220361 -0.271403,0.01712 -0.517369,-0.125171 -0.747745,-0.240297 -0.201679,-0.03478 -0.641041,0.06455 -0.515444,0.348061 0.08563,0.225753 0.291874,0.341857 0.457123,0.484247 0.06538,0.299544 -0.321831,0.338556 -0.533115,0.337533 -0.2166,0.02991 -0.600423,-0.203632 -0.681014,0.100402 -0.05954,0.123753 -0.204045,0.06029 -0.310932,0.07791 -0.218576,0.01163 -0.488159,0.08598 -0.5875231,0.296354 0.061671,0.207616 0.084612,0.425688 0.1388541,0.631553 0.117786,0.163507 0.218962,0.467386 -0.03069,0.564939 -0.291299,0.144376 -0.02267,0.462342 0.04894,0.66134 -0.01094,0.250227 0.180725,0.436743 0.228106,0.670703 -0.07301,0.179376 -0.340048,0.346811 -0.207302,0.562948 0.155581,0.03719 0.472526,0.0855 0.464196,0.239313 z"
       style="opacity:1" />
    <path
       id="path1241"
       d="m 11.218578,2.2823575 c -0.218807,0.00383 -0.43643,-0.047344 -0.306894,-0.3126938 0.04407,-0.260186 0.06677,-0.5257451 0.123628,-0.7827703 0.187938,0.00115 0.567693,-0.023973 0.415077,0.2764168 -0.03735,0.2682738 -0.08304,0.5355641 -0.11665,0.8041775 -0.02325,0.040412 -0.07997,0.013953 -0.115161,0.01487 z"
       style="opacity:1;fill:#000000" />
    <path
       id="path1239"
       d="m 12.250017,2.2953445 c -0.171012,-0.050977 -0.466752,-0.052374 -0.30464,-0.3027224 0.08411,-0.2718249 0.14098,-0.5549714 0.243347,-0.8192665 0.180916,0.043199 0.569645,0.040332 0.371383,0.3280603 -0.08265,0.2666558 -0.138341,0.5464976 -0.238715,0.8046601 -0.02326,0.013789 -0.04836,-0.013818 -0.07138,-0.010731 z"
       style="opacity:1;fill:#000000" />
    <path
       id="path1237"
       d="m 11.831495,3.2584331 c -0.06405,-0.1604094 -0.328652,-0.4197975 -0.01387,-0.4664049 0.269374,-0.1240474 0.528638,-0.2722378 0.803508,-0.382707 0.0858,0.1610777 0.331064,0.4247003 0.01854,0.4800318 -0.26407,0.1235418 -0.519018,0.269358 -0.790769,0.3747026 0,0 -0.01741,-0.00562 -0.01741,-0.00562 z"
       style="opacity:1;fill:#000000" />
    <path
       id="path1235"
       d="M 13.085673,3.3406821 C 12.943231,3.2195561 12.665057,3.070706 12.942009,2.9113987 13.123168,2.7071711 13.314863,2.511378 13.486788,2.2994888 c -0.18626,-0.054407 -0.562935,0.028364 -0.417676,-0.2884543 0.04089,-0.2745897 0.05298,-0.5570252 0.112398,-0.8266313 0.181898,0.014777 0.561572,-0.044664 0.419223,0.2547796 -0.02997,0.2792278 -0.0725,0.5571451 -0.101248,0.8363313 0.132226,0.1176911 0.502459,0.2843944 0.218033,0.4528889 -0.194251,0.2078574 -0.371019,0.4357017 -0.579299,0.6283722 0,0 -0.0255,7.367e-4 -0.0255,7.367e-4 0,0 -0.02704,-0.016831 -0.02704,-0.016831 z"
       style="opacity:1;fill:#000000" />
    <path
       id="path1233"
       d="M 10.786163,3.2213136 C 10.64382,3.128159 10.577366,3.0024534 10.76205,2.9090067 c 0.210005,-0.1975266 0.405626,-0.4115513 0.624297,-0.5990233 0.120093,0.097479 0.463798,0.2949858 0.191868,0.4342029 -0.213471,0.2045905 -0.417772,0.4193997 -0.637881,0.6166725 -0.05457,-0.042673 -0.103374,-0.09253 -0.154165,-0.1395452 z"
       style="opacity:1;fill:#000000" />
    <path
       id="path1231"
       d="m 13.101664,4.1940203 c -0.07789,-0.1495883 -0.30924,-0.3736975 -0.02554,-0.4351771 0.261738,-0.1401088 0.517474,-0.2925788 0.782225,-0.426416 0.120826,0.1741294 0.348222,0.4302463 0.01396,0.4997397 -0.244919,0.1296803 -0.482516,0.2786188 -0.732677,0.3949761 0,0 -0.01946,-0.00897 -0.01946,-0.00897 0,0 -0.01851,-0.024156 -0.01851,-0.024156 z"
       style="opacity:1;fill:#000000" />
    <path
       id="path1229"
       d="m 10.683525,4.2035603 c -0.09599,-0.1488131 -0.176961,-0.3231887 0.06709,-0.3557116 0.268436,-0.1139361 0.528237,-0.2492161 0.800569,-0.3531339 0.0646,0.2874445 0.337965,0.2066085 0.563451,0.1993755 0.201816,0.032672 0.517964,-0.092032 0.649643,0.050825 0.0036,0.1778988 0.07275,0.4667901 -0.207571,0.3843746 -0.293856,0.00832 -0.587812,0.013958 -0.881514,0.027018 -0.0096,-0.1292564 0.0045,-0.2900858 -0.160558,-0.1604281 -0.252866,0.1126914 -0.503307,0.2317797 -0.758326,0.3389483 -0.03054,-0.040053 -0.05,-0.086815 -0.07279,-0.1312677 z"
       style="opacity:1;fill:#000000" />
    <path
       id="path1227"
       d="M 8.0239826,5.1018932 C 7.6635113,5.1883264 7.8793777,4.7355546 7.7700485,4.5858594 7.5868656,4.5767929 7.4034234,4.5750849 7.2200976,4.5703842 7.2304244,4.3936934 7.0741325,3.9600343 7.3958379,4.0397253 7.5879842,4.0254273 7.9424659,4.1467282 7.8420258,3.82311 7.8282746,3.6211605 7.7876029,3.3402126 8.0870173,3.4219187 8.3106391,3.3733336 8.50215,3.4111569 8.425066,3.679983 8.3947212,3.89284 8.4142238,4.1053503 8.6897326,4.0319919 c 0.1777598,0.015373 0.4674379,-0.059651 0.3788159,0.222182 6.265e-4,0.098484 8.055e-4,0.1969699 0.00122,0.2954549 -0.2037379,0.00837 -0.4085914,0.00409 -0.6112226,0.028639 0,0.1782058 0,0.3564116 0,0.5346174 -0.1449657,0.00315 -0.2899018,-7.992e-4 -0.4345543,-0.010993 z"
       style="opacity:1;fill:#000000" />
    <path
       id="path1225"
       d="m 11.839471,5.3947105 c -0.07582,-0.1582278 -0.334418,-0.3719092 -0.01964,-0.4342678 0.258201,-0.1404325 0.507864,-0.2984736 0.77296,-0.4251283 0.130803,0.1650058 0.355534,0.4210298 0.02456,0.4918839 -0.24704,0.1332559 -0.48561,0.2843878 -0.738505,0.4055093 0,0 -0.0179,-0.011163 -0.0179,-0.011163 0,0 -0.02147,-0.026835 -0.02147,-0.026835 0,0 0,3e-7 0,3e-7 z"
       style="opacity:1;fill:#000000" />
    <path
       id="path1223"
       d="M 9.8887709,6.5515008 C 9.8645438,6.191464 9.8778887,5.8288829 9.8719746,5.4677056 9.7012546,5.3413699 9.913978,5.0094131 9.8910632,4.8073919 9.9556747,4.587081 9.980616,4.3458024 9.723762,4.3172368 9.8134869,3.9923053 9.9395466,3.6755421 10.026865,3.3487218 9.8339407,3.3516363 9.737954,3.2490647 9.823874,3.0623589 9.8666444,2.800736 9.9222372,2.5406166 9.9495067,2.2769974 9.8307075,2.2760857 9.8994673,2.1358056 9.8815292,2.0564664 c 0,-0.2890963 0,-0.5781922 0,-0.8672883 0.1464398,0 0.2928788,0 0.4393188,0 0,0.3564116 0,0.7128231 0,1.0692346 -0.266609,0.013165 0.226201,0.017172 0.07145,0.2054838 -0.04706,0.2925498 -0.105995,0.5839636 -0.14522,0.8773087 0.10547,0.073799 0.319335,0.088379 0.183563,0.2728445 -0.08329,0.2637191 -0.185761,0.5221527 -0.252367,0.7907104 0.131763,0.029854 0.294499,0.03844 0.203736,0.225358 -0.03396,0.2808925 -0.102031,0.5596839 -0.116318,0.8416289 0.108589,0.011181 0.03254,0.1655177 0.05516,0.2442594 0,0.2794793 0,0.5589591 0,0.8384386 -0.143942,-1.79e-4 -0.288543,0.00838 -0.4320711,-0.00295 z"
       style="opacity:1;fill:#000000" />
    <path
       id="path1221"
       d="m 13.367407,6.5680056 c -0.205779,0.012962 -0.380927,-0.029855 -0.290468,-0.2713222 0.02011,-0.2547504 0.06151,-0.5124339 0.06223,-0.7657938 -0.107744,-0.14623 -0.480735,-0.2491896 -0.2072,-0.4392431 0.189412,-0.2166437 0.358985,-0.453484 0.557428,-0.6604977 0.167831,0.1013675 0.497705,0.2658863 0.206824,0.4477941 -0.154488,0.1981972 -0.332456,0.3834795 -0.473213,0.5892156 0.176628,0.030752 0.488159,-0.029337 0.370403,0.2529031 -0.02618,0.2843165 -0.05477,0.5683287 -0.08274,0.8524771 -0.0478,0.00202 -0.09591,0.00285 -0.143269,-0.00552 z"
       style="opacity:1;fill:#000000" />
    <path
       id="path1219"
       d="m 11.199476,6.5683963 c -0.179335,7.159e-4 -0.391855,-0.02043 -0.2847,-0.2519561 0.02625,-0.2702544 0.07035,-0.5411985 0.08479,-0.8110741 -0.159213,-0.070299 -0.513178,-0.2847634 -0.227822,-0.4375969 0.201076,-0.2067609 0.385878,-0.4320225 0.597387,-0.6269757 0.16769,0.1196365 0.47384,0.3018596 0.169182,0.4684937 -0.161595,0.1835493 -0.341221,0.3519324 -0.494412,0.5422665 0.08578,0.094022 0.428188,-0.044529 0.4154,0.1406735 -0.04129,0.3267899 -0.06836,0.6555374 -0.117365,0.9813123 -0.04751,0.00147 -0.09545,0.00387 -0.14247,-0.00514 z"
       style="opacity:1;fill:#000000" />
    <path
       id="path1217"
       d="m 12.28822,6.5873253 c -0.213731,-0.0298 -0.480585,-0.059749 -0.319461,-0.334169 0.0645,-0.2610022 0.111137,-0.52737 0.188964,-0.78452 0.198104,0.026309 0.567828,0.020014 0.38891,0.3172967 -0.06635,0.2658667 -0.110753,0.5391119 -0.194213,0.7994984 0,0 -0.01205,0.00868 -0.01205,0.00868 0,0 -0.05215,-0.00677 -0.05215,-0.00677 z"
       style="opacity:1;fill:#000000" />
    <path
       id="path1215"
       d="M 6.0555564,6.7280813 C 5.4235042,6.284012 4.8047378,5.8197313 4.166726,5.3849699 3.4607635,5.7005679 2.7611308,6.0329899 2.0579216,6.3558057 1.9284966,6.3290013 2.1480977,6.0320583 2.1490284,5.9084338 2.3487631,5.3350025 2.5462429,4.7600492 2.7385891,4.1845128 2.6096593,3.9714578 2.3799463,3.8005217 2.2107206,3.6059497 1.8511918,3.2307303 1.4782103,2.8678162 1.1276303,2.4843951 c 0.200773,-0.05729 0.5122471,-0.00886 0.7554339,-0.02396 0.5426757,6.533e-4 1.0853751,0.00472 1.6280387,0.0014 C 3.8888959,1.7883714 4.2629423,1.1074739 4.6462804,0.44052038 4.7536916,0.60356645 4.7818173,0.83463271 4.860363,1.0224762 5.0390983,1.5599789 5.204837,2.1079358 5.3950832,2.6372717 5.8259419,2.7381816 6.2703041,2.7982788 6.7066007,2.8842921 7.0474803,2.9513886 7.39775,3.0009056 7.7325802,3.0782987 7.5345755,3.2683299 7.2713826,3.4068097 7.0484498,3.577152 6.6379941,3.8665565 6.2182764,4.1436794 5.8149948,4.4427345 c 0.00491,0.2624023 0.06614,0.5384304 0.093132,0.8060398 0.069845,0.498249 0.1340693,0.9975986 0.2027355,1.4958944 0,0 -0.00914,0.00523 -0.00914,0.00523 0,0 -0.046166,-0.021822 -0.046166,-0.021822 0,0 0,4.6e-6 1e-7,4.6e-6 z"
       style="opacity:1;fill:#000000" />
    <path
       id="path7860"
       d="m 4.7768632,15.456777 c -0.031537,-0.03751 0.059891,0.03203 0,0 z"
       style="opacity:1;fill:#000000" />
  </g>
</svg>
