<?xml version="1.0" encoding="UTF-8" standalone="no"?>
<svg
   xmlns:dc="http://purl.org/dc/elements/1.1/"
   xmlns:cc="http://creativecommons.org/ns#"
   xmlns:rdf="http://www.w3.org/1999/02/22-rdf-syntax-ns#"
   xmlns:svg="http://www.w3.org/2000/svg"
   xmlns="http://www.w3.org/2000/svg"
   xmlns:sodipodi="http://sodipodi.sourceforge.net/DTD/sodipodi-0.dtd"
   xmlns:inkscape="http://www.inkscape.org/namespaces/inkscape"
   inkscape:version="1.1-dev (1fceb22, 2019-12-30)"
   sodipodi:docname="object-flip-hor-symbolic.svg"
   viewBox="0 0 16 16"
   height="16"
   width="16"
   id="svg1"
   version="1.1">
  <metadata
     id="metadata16768">
    <rdf:RDF>
      <cc:Work
         rdf:about="">
        <dc:format>image/svg+xml</dc:format>
        <dc:type
           rdf:resource="http://purl.org/dc/dcmitype/StillImage" />
      </cc:Work>
    </rdf:RDF>
  </metadata>
  <defs
     id="defs16766" />
  <style
     id="s0">
.base { fill:#000000; }
.success { fill:#009909; }
.warning { fill:#FF1990; }
.error { fill:#00AAFF; }
.dark { }
</style>
  <style
     id="s2">
@import '../../highlights.css';
</style>
  <sodipodi:namedview
     inkscape:current-layer="svg1"
     inkscape:window-maximized="1"
     inkscape:window-y="-8"
     inkscape:window-x="54"
     inkscape:window-height="1177"
     inkscape:window-width="1858"
     inkscape:cy="8"
     inkscape:cx="8"
     inkscape:zoom="60.1875"
     showgrid="true"
     id="namedview"
     guidetolerance="10"
     gridtolerance="10"
     objecttolerance="10">
    <inkscape:grid
       id="grid"
       type="xygrid" />
  </sodipodi:namedview>
  <g
     inkscape:label="00366"
     id="object-flip-hor"
     transform="translate(-347,-1084.3622)">
    <g
       inkscape:label="stock-flip-horizontal"
       id="g11674"
       transform="translate(265.9998,705.3622)">
      <path
         transform="scale(-1)"
         style="opacity:0;fill:none"
         d="m -97.000198,-395 h 16 v 16 h -16 z"
         id="rect6281"
         inkscape:connector-curvature="0" />
      <path
         style="opacity:1"
         d="m 95.0002,388 v -2 c -3.98964,-0.01 -8.01048,-0.026 -12.00001,0.01 v 2 c 3.9883,-0.1031 8.00953,-0.02 12.00001,-0.01 z"
         id="path6283"
         inkscape:connector-curvature="0" />
      <path
         style="opacity:1"
         d="M 82.00019,387.0231 86.0002,383 v 8 z"
         id="path6285"
         inkscape:connector-curvature="0" />
      <path
         inkscape:connector-curvature="0"
         id="path6287"
         d="M 96.0002,387.0231 92.00019,383 v 8 z"
         style="opacity:1" />
    </g>
  </g>
</svg>
