<?xml version="1.0" encoding="UTF-8" standalone="no"?>
<svg
   xmlns:dc="http://purl.org/dc/elements/1.1/"
   xmlns:cc="http://creativecommons.org/ns#"
   xmlns:rdf="http://www.w3.org/1999/02/22-rdf-syntax-ns#"
   xmlns:svg="http://www.w3.org/2000/svg"
   xmlns="http://www.w3.org/2000/svg"
   xmlns:xlink="http://www.w3.org/1999/xlink"
   xmlns:sodipodi="http://sodipodi.sourceforge.net/DTD/sodipodi-0.dtd"
   xmlns:inkscape="http://www.inkscape.org/namespaces/inkscape"
   inkscape:version="1.1-dev (1fceb22, 2019-12-30)"
   sodipodi:docname="object-stroke-style-symbolic.svg"
   viewBox="0 0 16 16"
   height="16"
   width="16"
   id="svg1"
   version="1.1">
  <metadata
     id="metadata5675">
    <rdf:RDF>
      <cc:Work
         rdf:about="">
        <dc:format>image/svg+xml</dc:format>
        <dc:type
           rdf:resource="http://purl.org/dc/dcmitype/StillImage" />
      </cc:Work>
    </rdf:RDF>
  </metadata>
  <defs
     id="defs5673" />
  <style
     id="s0">.base { fill:#000000; }
.success { fill:#009909; }
.warning { fill:#FF1990; }
.error { fill:#00AAFF; }
.dark {  }
</style>
  <style
     id="s2">
@import '../../highlights.css';
</style>
  <sodipodi:namedview
     inkscape:current-layer="svg1"
     inkscape:window-maximized="1"
     inkscape:window-y="-8"
     inkscape:window-x="54"
     inkscape:window-height="1177"
     inkscape:window-width="1858"
     inkscape:cy="8"
     inkscape:cx="6.3136033"
     inkscape:zoom="60.1875"
     showgrid="true"
     id="namedview"
     guidetolerance="10"
     gridtolerance="10"
     objecttolerance="10">
    <inkscape:grid
       id="grid"
       type="xygrid" />
  </sodipodi:namedview>
  <g
     id="object-stroke-style"
     inkscape:label="00300"
     transform="matrix(1.333111,0,0,1.333333,-1493.0845,-1204.4829)">
    <path
       style="opacity:0;fill:none"
       d="m 1120,903.36218 h 12 v 12 h -12 z"
       id="rect20574"
       inkscape:connector-curvature="0" />
    <path
       class="error"
       inkscape:connector-curvature="0"
       id="rect12874"
       d="m 1120,905.3622 h 8 v -2 l 4,2.5 -4,2.5 v -2 h -8 z"
       style="opacity:1" />
    <path
       style="opacity:1"
       d="m 1120,910.36133 v 1 h 0.5 1 0.5 v -1 h -0.5 -1 z"
       id="path10529"
       inkscape:connector-curvature="0" />
    <path
       style="opacity:1"
       d="m 1126,910.36133 v 1 h 0.5 1 0.5 v -1 h -0.5 -1 z"
       id="use10533"
       inkscape:connector-curvature="0" />
    <use
       xlink:href="#use10533"
       transform="translate(3)"
       height="1250"
       width="1250"
       id="use10535"
       y="0"
       x="0"
       style="opacity:0;fill:none;stroke:#000000" />
    <path
       style="opacity:1"
       d="m 1120,914.36133 v 1 h 0.5 11.002 0.5 v -1 h -0.5 -11.002 z"
       id="path10541"
       inkscape:connector-curvature="0" />
    <use
       xlink:href="#path10529"
       height="1250"
       width="1250"
       transform="translate(2.999996)"
       id="use4611"
       y="0"
       x="0"
       style="opacity:0;fill:none;stroke:#000000" />
  </g>
</svg>
