<?xml version="1.0" encoding="UTF-8" standalone="no"?>
<svg
   xmlns:dc="http://purl.org/dc/elements/1.1/"
   xmlns:cc="http://creativecommons.org/ns#"
   xmlns:rdf="http://www.w3.org/1999/02/22-rdf-syntax-ns#"
   xmlns:svg="http://www.w3.org/2000/svg"
   xmlns="http://www.w3.org/2000/svg"
   xmlns:xlink="http://www.w3.org/1999/xlink"
   xmlns:sodipodi="http://sodipodi.sourceforge.net/DTD/sodipodi-0.dtd"
   xmlns:inkscape="http://www.inkscape.org/namespaces/inkscape"
   inkscape:version="1.0beta2 (7cf281c, 2019-12-21)"
   sodipodi:docname="object-tweak-rotate-symbolic.svg"
   viewBox="0 0 16 16"
   height="16"
   width="16"
   id="svg1"
   version="1.1">
  <metadata
     id="metadata2598">
    <rdf:RDF>
      <cc:Work
         rdf:about="">
        <dc:format>image/svg+xml</dc:format>
        <dc:type
           rdf:resource="http://purl.org/dc/dcmitype/StillImage" />
      </cc:Work>
    </rdf:RDF>
  </metadata>
  <defs
     id="defs2596" />
  <style
     id="s0">
.base { fill:#000000; }
.success { fill:#009909; }
.warning { fill:#FF1990; }
.error { fill:#00AAFF; }
.dark { }
</style>
  <style
     id="s2">
@import '../../highlights.css';
</style>
  <sodipodi:namedview
     inkscape:current-layer="svg1"
     inkscape:window-maximized="1"
     inkscape:window-y="-6"
     inkscape:window-x="65"
     inkscape:window-height="890"
     inkscape:window-width="1296"
     inkscape:cy="8"
     inkscape:cx="8"
     inkscape:zoom="41.125"
     showgrid="true"
     id="namedview"
     guidetolerance="10"
     gridtolerance="10"
     objecttolerance="10">
    <inkscape:grid
       id="grid"
       type="xygrid" />
  </sodipodi:namedview>
  <g
     id="object-tweak-rotate"
     style="fill:url(#linearGradient19282)"
     inkscape:label="00118"
     transform="matrix(1.206069,0,0,1.043228,-449.35233,-141.9747)">
    <path
       style="opacity:0;fill:none"
       d="m 372.57599,136.09171 h 13.26624 v 15.33701 h -13.26624 z"
       id="rect4073"
       inkscape:connector-curvature="0" />
    <g
       transform="matrix(0.8291402,0,0,0.9585631,64.23459,5.309395)"
       id="g4075">
      <use
         xlink:href="#rect5405-3"
         transform="rotate(6.891451,378.6993,212.0572)"
         x="0"
         y="0"
         inkscape:tiled-clone-of="#path5011"
         id="use5086-1-3"
         width="1250"
         height="1250" />
      <use
         xlink:href="#rect5405-3"
         x="0"
         y="0"
         inkscape:tiled-clone-of="#path5011"
         transform="rotate(6.742276,354.4789,240.2747)"
         id="use5088-9-5"
         width="1250"
         height="1250" />
      <use
         xlink:href="#rect5405-3"
         x="0"
         y="0"
         inkscape:tiled-clone-of="#path5011"
         transform="rotate(13.88251,355.3094,190.0243)"
         id="use5090-9-7"
         width="1250"
         height="1250" />
      <use
         xlink:href="#rect5405-3"
         x="0"
         y="0"
         inkscape:tiled-clone-of="#path5011"
         transform="rotate(8.166722,375.7447,159.1597)"
         id="use5092-7-7"
         width="1250"
         height="1250" />
      <use
         xlink:href="#rect5405-3"
         x="0"
         y="0"
         inkscape:tiled-clone-of="#path5011"
         transform="translate(11.81518)"
         id="use5094-1-2"
         width="1250"
         height="1250" />
      <use
         xlink:href="#rect5405-3"
         x="0"
         y="0"
         inkscape:tiled-clone-of="#path5011"
         transform="rotate(17.82176,354.9598,141.5001)"
         id="use5096-08-7"
         width="1250"
         height="1250" />
      <use
         xlink:href="#rect5405-3"
         x="0"
         y="0"
         inkscape:tiled-clone-of="#path5011"
         transform="rotate(8.378837,312.2742,143.0133)"
         id="use5098-0-4"
         width="1250"
         height="1250" />
      <use
         xlink:href="#rect5405-3"
         x="0"
         y="0"
         inkscape:tiled-clone-of="#path5011"
         transform="rotate(15.2684,377.2218,160.51)"
         id="use5100-2-4"
         width="1250"
         height="1250" />
      <use
         xlink:href="#rect5405-3"
         x="0"
         y="0"
         inkscape:tiled-clone-of="#path5011"
         transform="rotate(9.387622,355.833,139.986)"
         id="use5103-7-0"
         width="1250"
         height="1250" />
      <use
         xlink:href="#rect5405-3"
         x="0"
         y="0"
         inkscape:tiled-clone-of="#path5011"
         transform="rotate(44.87149,372.0792,143.563)"
         id="use5106-2-2"
         width="1250"
         height="1250" />
      <use
         xlink:href="#rect5405-3"
         x="0"
         y="0"
         inkscape:tiled-clone-of="#path5011"
         transform="rotate(42.22786,363.9853,146.8381)"
         id="use5108-6-5"
         width="1250"
         height="1250" />
      <use
         xlink:href="#rect5405-3"
         x="0"
         y="0"
         inkscape:tiled-clone-of="#path5011"
         transform="rotate(63.21644,374.7624,144.7858)"
         id="use5110-65-0"
         width="1250"
         height="1250" />
      <use
         xlink:href="#rect5405-3"
         x="0"
         y="0"
         inkscape:tiled-clone-of="#path5011"
         transform="rotate(41.22188,374.6744,151.767)"
         id="use5112-8-3"
         width="1250"
         height="1250" />
      <use
         xlink:href="#rect5405-3"
         x="0"
         y="0"
         inkscape:tiled-clone-of="#path5011"
         transform="rotate(65.03753,370.9967,143.8163)"
         id="use5114-5-8"
         width="1250"
         height="1250" />
      <use
         xlink:href="#rect5405-3"
         x="0"
         y="0"
         inkscape:tiled-clone-of="#path5011"
         transform="rotate(59.91134,369.3427,148.139)"
         id="use5116-6-2"
         width="1250"
         height="1250" />
      <use
         xlink:href="#rect5405-3"
         x="0"
         y="0"
         inkscape:tiled-clone-of="#path5011"
         transform="rotate(88.2,374.0981,144.5479)"
         id="use5118-0-4"
         width="1250"
         height="1250" />
      <use
         xlink:href="#rect5405-3"
         x="0"
         y="0"
         inkscape:tiled-clone-of="#path5011"
         transform="rotate(60.38546,373.4959,149.115)"
         id="use5120-1-8"
         width="1250"
         height="1250" />
      <use
         xlink:href="#rect5405-3"
         x="0"
         y="0"
         inkscape:tiled-clone-of="#path5011"
         transform="rotate(38.71798,365.7743,155.6236)"
         id="use5122-0-2"
         width="1250"
         height="1250" />
      <use
         xlink:href="#rect5405-3"
         x="0"
         y="0"
         inkscape:tiled-clone-of="#path5011"
         transform="rotate(5.269124,247.1145,240.8168)"
         id="use5124-4-5"
         width="1250"
         height="1250" />
      <use
         xlink:href="#rect5405-3"
         height="1250"
         width="1250"
         id="use5126-7-1"
         transform="rotate(5.910683,292.2152,257.4433)"
         inkscape:tiled-clone-of="#path5011"
         y="0"
         x="0" />
      <use
         xlink:href="#rect5405-3"
         height="1250"
         width="1250"
         id="use5128-0-6"
         transform="translate(0,12.10946)"
         inkscape:tiled-clone-of="#path5011"
         y="0"
         x="0" />
      <use
         xlink:href="#rect5405-3"
         height="1250"
         width="1250"
         id="use5130-7-6"
         transform="rotate(6.371765,266.9682,171.0607)"
         inkscape:tiled-clone-of="#path5011"
         y="0"
         x="0" />
      <use
         xlink:href="#rect5405-3"
         height="1250"
         width="1250"
         id="use5132-5-6"
         transform="rotate(12.64041,322.556,171.1961)"
         inkscape:tiled-clone-of="#path5011"
         y="0"
         x="0" />
      <use
         xlink:href="#rect5405-3"
         height="1250"
         width="1250"
         id="use5134-1-1"
         transform="translate(11.81518,12.10946)"
         inkscape:tiled-clone-of="#path5011"
         y="0"
         x="0" />
      <path
         d="m 373.7597,136.95441 h 1.25795 v 3.03604 h -1.25795 z"
         id="rect5405-3"
         inkscape:connector-curvature="0" />
    </g>
  </g>
</svg>
