<?xml version="1.0" encoding="UTF-8" standalone="no"?>
<svg
   xmlns:dc="http://purl.org/dc/elements/1.1/"
   xmlns:cc="http://creativecommons.org/ns#"
   xmlns:rdf="http://www.w3.org/1999/02/22-rdf-syntax-ns#"
   xmlns:svg="http://www.w3.org/2000/svg"
   xmlns="http://www.w3.org/2000/svg"
   xmlns:sodipodi="http://sodipodi.sourceforge.net/DTD/sodipodi-0.dtd"
   xmlns:inkscape="http://www.inkscape.org/namespaces/inkscape"
   version="1.1"
   id="svg1"
   width="16"
   height="16"
   viewBox="0 0 16 16"
   sodipodi:docname="ruler-symbolic.svg"
   inkscape:version="1.1-dev (1fceb22ce1, 2019-12-30, custom)">
  <defs
     id="defs1687" />
  <style
     id="s0">.base { fill:#000000; }
.success { fill:#009909; }
.warning { fill:#FF1990; }
.error { fill:#00AAFF; }
.dark {  }
</style>
  <style
     id="s2">
@import '../../highlights.css';
</style>
  <sodipodi:namedview
     objecttolerance="10"
     gridtolerance="10"
     guidetolerance="10"
     id="namedview"
     showgrid="true"
     inkscape:zoom="27.166187"
     inkscape:cx="5.9561449"
     inkscape:cy="8.9538646"
     inkscape:window-x="0"
     inkscape:window-y="27"
     inkscape:window-width="2560"
     inkscape:window-height="1376"
     inkscape:window-maximized="1"
     inkscape:current-layer="svg1">
    <inkscape:grid
       type="xygrid"
       id="grid" />
  </sodipodi:namedview>
  <metadata
     id="metadata1906">
    <rdf:RDF>
      <cc:Work
         rdf:about="">
        <dc:format>image/svg+xml</dc:format>
        <dc:type
           rdf:resource="http://purl.org/dc/dcmitype/StillImage" />
        <cc:license
           rdf:resource="http://creativecommons.org/publicdomain/zero/1.0/" />
        <dc:title />
        <dc:date>13 Jan 2019</dc:date>
        <dc:creator>
          <cc:Agent>
            <dc:title>Ramón Miranda</dc:title>
          </cc:Agent>
        </dc:creator>
        <dc:rights>
          <cc:Agent>
            <dc:title>see the license tab</dc:title>
          </cc:Agent>
        </dc:rights>
        <dc:subject>
          <rdf:Bag>
            <rdf:li>icon ui</rdf:li>
          </rdf:Bag>
        </dc:subject>
        <dc:description>This is a contribution with Inkscape Project from
Ramon Miranda www.ramonmiranda.com (design and SVG file)
Jabiertxo (SVG stuff to integrate them in UI)</dc:description>
        <dc:publisher>
          <cc:Agent>
            <dc:title />
          </cc:Agent>
        </dc:publisher>
        <dc:identifier />
        <dc:source />
        <dc:relation />
        <dc:language>-</dc:language>
        <dc:coverage />
        <dc:contributor>
          <cc:Agent>
            <dc:title>Ramon Miranda
Jabier Arraiza</dc:title>
          </cc:Agent>
        </dc:contributor>
      </cc:Work>
      <cc:License
         rdf:about="http://creativecommons.org/publicdomain/zero/1.0/">
        <cc:permits
           rdf:resource="http://creativecommons.org/ns#Reproduction" />
        <cc:permits
           rdf:resource="http://creativecommons.org/ns#Distribution" />
        <cc:permits
           rdf:resource="http://creativecommons.org/ns#DerivativeWorks" />
      </cc:License>
    </rdf:RDF>
  </metadata>
  <g
     inkscape:groupmode="layer"
     id="layercompo"
     inkscape:label="ruler">
    <path
       id="path1682"
       d="M 7.4418998,3.2654423 C 5.7432607,3.2654423 4.1723729,4.1722016 3.3230538,5.6432652 2.4737339,7.1143286 2.4737339,8.9278298 3.3230538,10.398893 4.1723729,11.869956 5.7432607,12.776716 7.4418998,12.776716 V 12.060547 C 5.9982282,12.060547 4.665807,11.291067 3.9439671,10.040813 3.2221363,8.7905508 3.2221363,7.2516071 3.9439671,6.0013447 4.665807,4.7510916 5.9982282,3.9816105 7.4418998,3.9816105 Z"
       class="error"
       style="" />
    <path
       id="rect22048"
       d="M 0,0 H 16 V 16 H 0 Z"
       style="opacity:0;fill:none" />
    <path
       id="path9609"
       d="M 7.2779942,0.9140877 V 3.4506772 3.6238282 3.8142487 4.1227453 4.4863168 H 8 V 4.1227453 4 C 9.3008941,4.117309 10.473246,4.8568397 11.133986,6.0012694 11.855826,7.2515242 11.855826,8.7904248 11.133986,10.04068 10.473246,11.18511 9.3008941,11.925039 8,12.042415 V 11.873465 11.510362 H 7.2779942 V 11.873465 12.18243 12.418587 12.545534 15.128328 H 7.9944011 V 12.762089 C 8.4097261,12.730729 8.8148881,12.64581 9.2003891,12.511463 L 9.6050301,13.438358 10.261229,13.152729 9.8570561,12.2235 C 10.220685,12.031354 10.55859,11.792767 10.862358,11.512228 L 11.603499,12.201566 12.092148,11.677912 11.351007,10.987643 C 11.498505,10.802954 11.634929,10.607401 11.755182,10.399116 11.842512,10.247856 11.918701,10.092025 11.988072,9.9342698 L 14.221298,10.720215 14.459322,10.044412 12.227496,9.2589328 C 12.335292,8.8588768 12.390407,8.4481498 12.391779,8.0370756 L 13.398947,7.9647366 13.348077,7.2483299 12.338575,7.3220719 C 12.278496,6.9173683 12.166136,6.5192315 12.001137,6.1370834 L 12.898163,5.6680361 12.56493,5.032839 11.668372,5.5037527 C 11.447352,5.1497586 11.183832,4.831319 10.88616,4.5525893 L 12.368911,2.7062694 11.809786,2.258224 10.327503,4.1022117 C 9.9882651,3.8693523 9.6199581,3.6811397 9.2311931,3.5426209 L 9.4972191,2.567189 8.8055496,2.3781687 8.5399888,3.3531347 C 8.3608015,3.3184426 8.1784579,3.2942248 7.9944011,3.2803264 V 0.9140874 Z M 7.2779942,5.4650153 V 5.8285868 6.1370834 6.5006549 H 8 V 6.1370834 5.8285868 5.4650153 Z M 7.2779942,7.4812197 V 7.8447913 8.1514216 8.5149908 H 8 V 8.1514216 7.8447913 7.4812197 Z M 7.2779942,9.4955578 V 9.8591268 10.167626 10.531195 H 8 V 10.167626 9.8591268 9.4955578 Z"
       style="opacity:1;" />
  </g>
</svg>
